firstname,lastname,email,mobile,address
"abc,abb,abc@gm.com,911111111,""asdf,g"""
"abc,abb,abc@gm.com,911111111,""asdf,g"""
"abc,abb,abc@gm.com,911111111,""asdf,g"""
"abc,abb,abc@gm.com,911111111,""asdf,g"""
"abc,abb,abc@gm.com,911111111,""asdf,g"""
"abc,abb,abc@gm.com,911111111,""asdf,g"""
